<?xml version="1.0"?>
<robot name="simple_robot">
  
  <link name="map" />

  <joint name = "map_simple_robot_joint" type = "fixed">
    <origin xyz="0 0 0" rpy = "0 0 0" />
    <parent link = "map" />
    <child link = "base_link" />
  </joint>

  <link name="base_link">
    <visual>
      <origin xyz="0 0 0.05" rpy="0 0 0"/>
      <geometry>
        <box size = "0.5 0.5 0.1"/>
      </geometry>
      <material name="oak">
        <color rgba="0.84375 0.70703125 0.53515625 1"/>
      </material>
    </visual>
    <visual>
      <origin xyz="-0.7 0.45 0.235" rpy="0 0 0"/>
      <geometry>
        <box size = "0.9 1.9 0.47"/>
      </geometry>
      <material name="grey">
        <color rgba="0.5 0.5 0.5 1"/>
      </material>
    </visual>
  </link>

  <link name="arm1">
    <visual>
      <origin xyz="0 0 0.605" rpy="0 0 0"/>
      <geometry>
        <cylinder length="1.11" radius="0.019"/>
      </geometry>
      <material name="red">
        <color rgba="0.75 0.0 0.0 1"/>
      </material>
    </visual>
    <inertial>
      <origin xyz="0 0 0.2" rpy="0 0 0"/>
      <mass value="5"/>
      <inertia ixx="0.05" ixy="0" ixz="0" iyy="0.05" iyz="0" izz="0.05"/>
    </inertial>
  </link>

  <joint name="joint1" type="prismatic">
    <parent link="base_link"/>
    <child link="arm1"/>
    <origin xyz="0 -0.20 0.05"/>
    <axis xyz="0 1 0"/>
    <limit effort = "300" lower="-0.1" upper="0.5" velocity = "10" />
  </joint>

  <link name="arm2">
    <visual>
      <origin xyz="0 0 0.155" rpy="0 0 0"/>
      <geometry>
        <cylinder length="0.41" radius="0.02"/>
      </geometry>
      <material name="blue">
        <color rgba="0.0 0.0 0.75 1"/>
      </material>
    </visual>
    <inertial>
      <mass value="5"/>
      <inertia ixx="0.05" ixy="0" ixz="0" iyy="0.05" iyz="0" izz="0.05"/>
      <origin xyz="0 0 0.155" rpy="0 0 0"/>
    </inertial>
  </link>

  <joint name="joint2" type="prismatic">
    <parent link="arm1"/>
    <child link="arm2"/>
    <origin xyz="0 0 0.45"/>
    <axis xyz="0 0 1"/>
    <limit effort = "300" lower="-2.1" upper="2.0" velocity = "10" />
  </joint>

  <link name="arm3">
    <visual>
      <origin xyz="-0.15 0 0" rpy="0 -1.5707 0"/>
      <geometry>
        <cylinder length="0.3" radius="0.02"/>
      </geometry>
      <material name="blue">
        <color rgba="0.0 0.0 0.75 1"/>
      </material>
    </visual>
    <inertial>
      <mass value="5"/>
      <inertia ixx="0.05" ixy="0" ixz="0" iyy="0.05" iyz="0" izz="0.05"/>
      <origin xyz="-0.15 0 0" rpy="0 -1.5707 0"/>
    </inertial>
  </link>

  <joint name="joint3" type="revolute">
    <parent link="arm2"/>
    <child link="arm3"/>
    <origin xyz="0 0 0.31"/>
    <axis xyz="0 0 1"/>
    <limit effort = "300" lower="-2.96705972839" upper="2.96705972839" velocity = "10" />
  </joint>

  <link name="arm4">
    <visual>
      <origin xyz="-0.15 0 0" rpy="0 -1.5707 0"/>
      <geometry>
        <cylinder length="0.3" radius="0.02"/>
      </geometry>
      <material name="blue">
        <color rgba="0.0 0.0 0.75  1"/>
      </material>
    </visual>
    <inertial>
      <mass value="5"/>
      <inertia ixx="0.05" ixy="0" ixz="0" iyy="0.05" iyz="0" izz="0.05"/>
      <origin xyz="-0.3 0 0" rpy="0 -1.5707 0"/>
    </inertial>
  </link>

  <joint name="joint4" type="fixed">
    <parent link="arm3"/>
    <child link="arm4"/>
    <origin xyz="-0.3 0 0"/>
  </joint>


  <link name="ee_link" />

  <joint name="ee_joint" type="fixed">
    <parent link="arm4"/>
    <child link="ee_link"/>
    <origin xyz="-0.3 0 0"/>
  </joint>


</robot>




